…
# 5. Reading the dataset

``` r
dataset <- read_excel('Acoustic_Extinguisher_Fire_Dataset.xlsx', sheet = 'A_E_Fire_Dataset')
```

``` r
sample(dataset)
```

    ## # A tibble: 17,442 × 7
    ##     SIZE DESIBEL STATUS FUEL     AIRFLOW DISTANCE FREQUENCY
    ##    <dbl>   <dbl>  <dbl> <chr>      <dbl>    <dbl>     <dbl>
    ##  1     1      96      0 gasoline     0         10        75
    ##  2     1      96      1 gasoline     0         10        72
    ##  3     1      96      1 gasoline     2.6       10        70
    ##  4     1      96      1 gasoline     3.2       10        68
    ##  5     1     109      1 gasoline     4.5       10        67
    ##  6     1     109      1 gasoline     7.8       10        66
    ##  7     1     103      1 gasoline     9.7       10        65
    ##  8     1      95      1 gasoline    12         10        60
    ##  9     1     102      1 gasoline    13.3       10        55
    ## 10     1      93      1 gasoline    15.4       10        52
    ## # … with 17,432 more rows
…
